<?xml version="1.0" encoding="UTF-8" standalone="no"?>
<!DOCTYPE svg PUBLIC "-//W3C//DTD SVG 1.1//EN" "http://www.w3.org/Graphics/SVG/1.1/DTD/svg11.dtd">
<svg width="100%" height="100%" viewBox="0 0 1642 530" version="1.1" xmlns="http://www.w3.org/2000/svg" xmlns:xlink="http://www.w3.org/1999/xlink" xml:space="preserve" xmlns:serif="http://www.serif.com/" style="fill-rule:evenodd;clip-rule:evenodd;stroke-linejoin:round;stroke-miterlimit:1.41421;">
    <g transform="matrix(4.16667,0,0,4.16667,0,0)">
        <path d="M116.069,98.2C113.637,97.642 111.058,97.289 108.448,97.289C103.985,97.289 99.923,98.062 96.929,99.311C96.599,99.474 96.364,99.82 96.364,100.211C96.364,100.356 96.4,100.5 96.454,100.623C96.809,101.648 96.227,102.76 93.328,103.398C89.03,104.343 86.316,108.778 84.765,110.25C82.941,111.982 77.792,113.044 78.567,112.012C79.174,111.207 81.49,108.689 82.9,105.97C84.161,103.538 85.283,102.847 86.83,100.527C87.282,99.848 89.042,97.457 89.554,95.566C90.128,93.722 89.934,91.404 90.155,90.452C90.471,89.075 91.769,86.091 91.867,84.407C91.923,83.452 87.887,85.767 85.973,85.767C84.059,85.767 82.194,84.619 80.483,84.536C78.366,84.439 77.005,86.171 75.089,85.868C73.997,85.693 73.075,84.728 71.163,84.658C68.441,84.558 65.116,86.171 58.869,85.97C52.725,85.769 47.049,78.203 46.275,77C45.367,75.59 44.258,75.59 43.051,76.701C41.84,77.808 40.351,76.937 39.926,76.193C39.121,74.785 36.966,70.663 33.628,69.798C29.013,68.602 26.676,72.353 26.98,75.338C27.288,78.369 29.246,79.218 30.154,80.828C31.06,82.441 31.524,83.478 33.231,84.191C34.44,84.698 34.89,85.442 34.53,86.436C34.214,87.3 32.956,87.497 32.129,87.538C30.371,87.622 29.138,87.145 28.239,86.572C27.193,85.903 26.343,84.978 25.431,83.408C24.375,81.673 22.712,80.917 20.775,80.917C19.852,80.917 18.988,81.161 18.22,81.556C15.185,83.138 11.571,84.072 7.68,84.072L3.292,84.076C11.707,109.03 35.303,127 63.098,127C85.299,127 104.823,115.535 116.069,98.2Z" style="fill:white;fill-rule:nonzero;"/>
        <path d="M125.557,94.413L125.557,93.403L126.229,93.403C126.57,93.403 126.938,93.479 126.938,93.881C126.938,94.38 126.568,94.413 126.147,94.413L125.557,94.413ZM125.557,94.831L126.126,94.831L126.985,96.242L127.538,96.242L126.608,94.805C127.091,94.747 127.455,94.494 127.455,93.914C127.455,93.267 127.074,92.988 126.306,92.988L125.065,92.988L125.065,96.242L125.557,96.242L125.557,94.831Z" style="fill-rule:nonzero;"/>
        <path d="M126.141,91.993C124.69,91.993 123.515,93.168 123.515,94.62C123.515,96.067 124.69,97.237 126.141,97.237C127.588,97.237 128.763,96.067 128.763,94.62C128.763,93.168 127.588,91.993 126.141,91.993ZM129.33,94.619C129.33,96.375 127.901,97.805 126.141,97.805C124.38,97.805 122.95,96.375 122.95,94.619C122.95,92.858 124.38,91.428 126.141,91.428C127.901,91.428 129.33,92.858 129.33,94.619Z" style="fill-rule:nonzero;"/>
        <path d="M116.069,98.203C113.637,97.642 111.058,97.293 108.448,97.293C103.985,97.293 99.923,98.068 96.929,99.311C96.599,99.477 96.364,99.821 96.364,100.214C96.364,100.356 96.4,100.504 96.454,100.623C96.809,101.65 96.227,102.764 93.328,103.4C89.03,104.345 86.316,108.778 84.765,110.253C82.941,111.982 77.792,113.048 78.567,112.016C79.174,111.209 81.49,108.691 82.9,105.971C84.161,103.542 85.283,102.849 86.83,100.531C87.282,99.849 89.042,97.458 89.554,95.569C90.128,93.722 89.934,91.408 90.155,90.452C90.471,89.078 91.769,86.093 91.867,84.41C91.923,83.457 87.887,85.767 85.973,85.767C84.059,85.767 82.194,84.623 80.483,84.54C78.366,84.439 77.005,86.172 75.089,85.869C73.997,85.695 73.075,84.733 71.163,84.661C68.441,84.56 65.116,86.172 58.869,85.971C52.725,85.774 47.049,78.208 46.275,77.005C45.367,75.592 44.258,75.592 43.051,76.703C41.84,77.808 40.351,76.939 39.926,76.197C39.121,74.786 36.966,70.663 33.628,69.8C29.013,68.602 26.676,72.355 26.98,75.339C27.288,78.369 29.246,79.218 30.154,80.828C31.06,82.441 31.524,83.484 33.231,84.197C34.44,84.698 34.89,85.446 34.53,86.439C34.214,87.303 32.956,87.501 32.129,87.541C30.371,87.624 29.138,87.148 28.239,86.572C27.193,85.908 26.343,84.982 25.431,83.41C24.375,81.675 22.712,80.92 20.775,80.92C19.852,80.92 18.988,81.165 18.22,81.559C15.185,83.138 11.571,84.076 7.68,84.076L3.292,84.076C1.157,77.744 0,70.959 0,63.906C0,29.056 28.25,0.808 63.098,0.808C97.946,0.808 126.194,29.056 126.194,63.906C126.194,76.552 122.475,88.327 116.069,98.203Z" style="fill-rule:nonzero;"/>
        <path d="M158.358,67.886C158.358,62.099 158.238,57.843 158.004,53.994L167.469,53.994L167.874,62.204L168.184,62.204C170.311,56.119 175.352,53.017 180.018,53.017C181.085,53.017 181.707,53.057 182.581,53.253L182.581,63.549C181.559,63.348 180.603,63.239 179.288,63.239C174.08,63.239 170.466,66.552 169.49,71.506C169.306,72.47 169.207,73.626 169.207,74.804L169.207,97.222L158.27,97.222L158.358,67.886Z" style="fill-rule:nonzero;"/>
        <path d="M214.786,70.935C214.836,66.929 213.093,60.402 205.772,60.402C199.042,60.402 196.245,66.506 195.755,70.935L214.786,70.935ZM195.776,78.549C196.065,86.382 202.128,89.809 209.128,89.809C214.154,89.809 217.752,89.022 221.057,87.808L222.674,95.327C218.977,96.898 213.842,98.069 207.568,98.069C193.531,98.069 185.309,89.401 185.309,76.156C185.309,64.225 192.546,52.935 206.45,52.935C220.506,52.935 225.081,64.495 225.081,73.958C225.081,75.99 224.9,77.62 224.692,78.628L195.776,78.549Z" style="fill-rule:nonzero;"/>
        <path d="M272.173,37.347L261.247,34.265L261.247,58.648L261.068,58.648C259.135,55.454 254.872,53.017 248.955,53.017C238.56,53.017 229.509,61.619 229.574,76.102C229.574,89.389 237.75,98.193 248.073,98.193C254.312,98.193 259.526,95.22 262.109,90.377L262.304,90.377L262.794,97.222L272.533,97.222C272.332,94.284 272.173,89.523 272.173,85.098L272.173,37.347ZM261.247,78.478C261.247,79.623 261.167,80.691 260.917,81.666C259.816,86.397 255.948,89.446 251.478,89.446C244.596,89.446 240.657,83.644 240.657,75.702C240.657,67.681 244.561,61.474 251.602,61.474C256.517,61.474 260.035,64.939 261.002,69.149C261.187,70.035 261.247,71.126 261.247,72L261.247,78.478Z" style="fill-rule:nonzero;"/>
        <path d="M301.075,52.967C297.783,52.967 294.834,53.916 292.356,55.446C289.784,56.952 287.691,59.278 286.446,61.686L286.273,61.686L286.273,41.455L281.993,40.191L281.993,97.222L286.273,97.222L286.273,70.765C286.273,69.007 286.407,67.788 286.855,66.503C288.704,61.121 293.775,56.705 299.904,56.705C308.761,56.705 311.827,63.808 311.827,71.598L311.827,97.222L316.104,97.222L316.104,71.126C316.104,55.013 305.176,52.967 301.075,52.967Z" style="fill-rule:nonzero;"/>
        <path d="M350.225,74.099C340.804,73.827 328.365,75.255 328.365,85.642C328.365,91.859 332.469,94.654 336.976,94.654C344.185,94.654 348.284,90.19 349.777,85.979C350.088,85.056 350.225,84.128 350.225,83.387L350.225,74.099ZM354.502,86.946C354.502,90.367 354.64,93.909 355.133,97.222L351.191,97.222L350.563,91.023L350.359,91.023C348.264,94.357 343.443,98.206 336.566,98.206C327.861,98.206 323.811,92.084 323.811,86.316C323.811,76.329 332.625,70.314 350.225,70.499L350.225,69.343C350.225,65.063 349.393,56.527 339.159,56.594C335.373,56.594 331.429,57.607 328.299,59.818L326.937,56.705C330.889,54.027 335.716,52.967 339.629,52.967C352.113,52.967 354.502,62.339 354.502,70.07L354.502,86.946Z" style="fill-rule:nonzero;"/>
        <path d="M371.541,44.423L371.541,53.956L383.873,53.956L383.873,57.427L371.541,57.427L371.541,85.546C371.541,91.047 373.249,94.494 377.896,94.494C380.126,94.494 381.703,94.202 382.812,93.817L383.33,97.13C381.933,97.716 379.971,98.17 377.359,98.17C374.202,98.17 371.584,97.176 369.894,95.102C367.935,92.829 367.265,89.199 367.265,84.785L367.265,57.427L359.964,57.427L359.964,53.956L367.265,53.956L367.265,46.001L371.541,44.423Z" style="fill-rule:nonzero;"/>
        <path d="M389.279,94.498L389.279,93.489L389.949,93.489C390.288,93.489 390.659,93.565 390.659,93.965C390.659,94.466 390.288,94.498 389.868,94.498L389.279,94.498ZM389.279,94.918L389.848,94.918L390.705,96.327L391.259,96.327L390.331,94.89C390.814,94.831 391.178,94.579 391.178,93.999C391.178,93.352 390.793,93.073 390.027,93.073L388.785,93.073L388.785,96.327L389.279,96.327L389.279,94.918Z" style="fill-rule:nonzero;"/>
        <path d="M389.861,92.077C388.408,92.077 387.236,93.252 387.236,94.704C387.236,96.152 388.408,97.321 389.861,97.321C391.309,97.321 392.483,96.152 392.483,94.704C392.483,93.252 391.309,92.077 389.861,92.077ZM393.052,94.702C393.052,96.46 391.622,97.889 389.861,97.889C388.104,97.889 386.672,96.46 386.672,94.702C386.672,92.942 388.104,91.513 389.861,91.513C391.622,91.513 393.052,92.942 393.052,94.702Z" style="fill-rule:nonzero;"/>
        <path d="M76.995,92.416C77.318,92.732 77.878,93.799 77.193,95.149C76.811,95.866 76.397,96.369 75.659,96.957C74.772,97.67 73.037,98.491 70.657,96.983C69.379,96.171 69.301,95.898 67.535,96.126C66.272,96.292 65.771,95.019 66.224,93.958C66.678,92.904 68.543,92.047 70.859,93.407C71.902,94.018 73.528,95.314 74.952,94.166C75.541,93.694 75.894,93.379 76.712,92.43C76.751,92.392 76.802,92.369 76.86,92.369C76.911,92.369 76.959,92.388 76.995,92.416Z" style="fill-rule:nonzero;"/>
        <path d="M98.704,47.118C98.079,49.214 97.193,51.894 93.248,53.919C92.673,54.214 92.454,53.731 92.719,53.278C94.21,50.742 94.475,50.108 94.908,49.108C95.515,47.645 95.832,45.564 94.626,41.225C92.253,32.685 87.303,21.271 83.704,17.568C80.232,13.994 73.94,12.99 68.253,14.448C66.159,14.985 62.061,17.117 54.462,15.405C41.31,12.443 39.362,19.028 38.608,21.896C37.852,24.766 36.041,32.919 36.041,32.919C35.436,36.242 34.646,42.015 55.066,45.906C64.581,47.717 65.063,50.175 65.484,51.944C66.24,55.113 67.446,56.927 68.806,57.833C70.165,58.742 68.806,59.492 67.297,59.645C63.246,60.066 48.272,55.771 39.413,50.737C32.164,46.307 32.043,42.319 33.703,38.935C22.754,37.752 14.537,39.961 13.048,45.145C10.492,54.039 32.604,69.234 57.783,76.859C84.208,84.859 111.387,79.273 114.408,62.663C115.778,55.118 109.423,49.536 98.704,47.118ZM65.844,18.81C65.833,18.81 65.821,18.813 65.811,18.813C65.698,18.813 65.607,18.726 65.607,18.621C65.607,18.545 65.654,18.479 65.722,18.448C67.135,17.702 69.243,17.108 71.655,16.862C72.379,16.787 73.087,16.75 73.768,16.744C73.888,16.744 74.007,16.744 74.128,16.746C78.172,16.838 81.41,18.445 81.362,20.335C81.314,22.228 77.999,23.687 73.953,23.597C72.644,23.566 71.415,23.376 70.357,23.071C70.233,23.038 70.142,22.932 70.142,22.806C70.142,22.681 70.233,22.572 70.36,22.54C72.883,21.956 74.586,21.002 74.466,20.101C74.308,18.906 71.008,18.255 67.094,18.648C66.666,18.692 66.249,18.747 65.844,18.81ZM58.187,30.853C50.899,31.381 50.142,32.168 48.777,33.621C46.852,35.672 44.316,30.962 44.316,30.962C42.795,30.642 40.95,28.187 41.944,25.897C42.925,23.631 44.736,24.31 45.304,25.015C45.994,25.874 47.468,27.281 49.381,27.229C51.293,27.179 53.501,26.777 56.579,26.777C59.698,26.777 61.795,27.942 61.913,28.943C62.014,29.797 61.66,30.602 58.187,30.853Z" style="fill:rgb(229,35,52);fill-rule:nonzero;"/>
    </g>
</svg>