<?xml version="1.0" encoding="UTF-8" standalone="no"?>
<!DOCTYPE svg PUBLIC "-//W3C//DTD SVG 1.1//EN" "http://www.w3.org/Graphics/SVG/1.1/DTD/svg11.dtd">
<svg width="100%" height="100%" viewBox="0 0 318 162" version="1.1" xmlns="http://www.w3.org/2000/svg" xmlns:xlink="http://www.w3.org/1999/xlink" xml:space="preserve" style="fill-rule:evenodd;clip-rule:evenodd;stroke-linejoin:round;stroke-miterlimit:1.41421;">
    <g transform="matrix(1,0,0,1,-138.874,-368.79)">
        <path d="M358.868,486.722L358.868,480.47L362.03,477.417C365.411,474.109 367.338,472.583 367.338,470.691C367.338,469.383 366.72,469.237 364.502,469.237C362.176,469.237 359.304,469.783 359.304,469.783L358.941,463.568C358.941,463.568 362.721,462.222 366.829,462.222C372.281,462.222 375.662,464.694 375.662,469.492C375.662,473.672 374.462,475.708 370.5,478.47L368.065,480.179L375.516,480.179L375.516,486.722L358.868,486.722Z" style="fill:rgb(78,135,160);fill-rule:nonzero;"/>
        <path d="M386.106,474.843C386.106,479.714 386.36,480.477 387.342,480.477C388.323,480.477 388.578,479.714 388.578,474.843C388.578,469.972 388.36,469.245 387.342,469.245C386.324,469.245 386.106,469.972 386.106,474.843M396.829,474.843C396.829,483.422 394.611,487.311 387.342,487.311C380.072,487.311 377.854,483.422 377.854,474.843C377.854,466.264 380.254,462.411 387.342,462.411C394.648,462.411 396.829,466.264 396.829,474.843" style="fill:rgb(78,135,160);fill-rule:nonzero;"/>
        <path d="M406.361,462.768L413.304,462.768L413.304,486.723L405.052,486.723L405.052,471.601L400.036,473.6L397.855,467.712L406.361,462.768Z" style="fill:rgb(78,135,160);fill-rule:nonzero;"/>
        <path d="M425.117,469.697C425.117,470.824 425.808,471.515 425.808,471.515L426.789,471.515C426.789,471.515 427.48,470.788 427.48,469.697C427.48,468.643 427.189,468.061 426.244,468.061C425.299,468.061 425.117,468.679 425.117,469.697M427.734,479.148C427.734,477.84 426.789,477.003 426.789,477.003L425.808,477.003C425.808,477.003 424.826,477.803 424.826,479.148C424.826,480.275 425.299,480.748 426.28,480.748C427.262,480.748 427.734,480.384 427.734,479.148M435.441,468.497C435.441,471.551 434.895,472.932 432.678,474.241C435.186,475.477 435.804,476.676 435.804,480.057C435.804,485.473 431.369,486.891 426.28,486.891C421.191,486.891 416.756,485.473 416.756,479.984C416.756,476.676 417.665,475.549 419.919,474.204C417.811,472.932 417.193,471.587 417.193,468.461C417.193,463.554 421.118,461.991 426.28,461.991C431.442,461.991 435.441,463.227 435.441,468.497" style="fill:rgb(78,135,160);fill-rule:nonzero;"/>
        <path d="M139.053,402.466L139.053,486.004L172.729,452.328L172.729,368.79L139.053,402.466Z" style="fill:rgb(91,194,231);fill-rule:nonzero;"/>
        <path d="M172.729,452.328L139.053,486.004L222.591,486.004L256.267,452.328L172.729,452.328Z" style="fill:rgb(78,135,160);fill-rule:nonzero;"/>
        <path d="M290.489,368.791L255.231,404.048L231.419,427.861L279.044,427.861L338.114,368.791L290.489,368.791Z" style="fill:rgb(91,194,231);fill-rule:nonzero;"/>
        <path d="M290.489,486.931L231.419,427.861L279.044,427.861L338.114,486.931L290.489,486.931Z" style="fill:rgb(78,135,160);fill-rule:nonzero;"/>
        <path d="M397.336,369.191L397.336,369.346L397.181,369.191L397.181,416.816L397.336,416.661L397.336,416.816L456.406,475.886L456.406,428.261L397.336,369.191Z" style="fill:rgb(91,194,231);fill-rule:nonzero;"/>
        <path d="M338.266,428.262L397.336,369.192L397.336,416.817L338.266,475.887L338.266,428.262Z" style="fill:rgb(78,135,160);fill-rule:nonzero;"/>
        <path d="M138.874,529.534L138.874,495.345L150.713,495.345L150.713,519.89L161.837,519.89L161.837,529.534L138.874,529.534Z" style="fill:rgb(91,194,231);fill-rule:nonzero;"/>
        <rect x="163.827" y="495.344" width="11.839" height="34.189" style="fill:rgb(91,194,231);fill-rule:nonzero;"/>
        <path d="M178.727,495.344L190.362,495.344L198.22,508.305L198.934,508.305L198.934,495.344L210.773,495.344L210.773,529.533L199.087,529.533L191.331,515.602L190.566,515.602L190.566,529.533L178.727,529.533L178.727,495.344Z" style="fill:rgb(91,194,231);fill-rule:nonzero;"/>
        <path d="M225.468,517.746C225.468,519.685 226.335,520.451 228.683,520.451C231.03,520.451 231.847,519.685 231.847,517.746L231.847,495.344L243.685,495.344L243.685,517.083C243.685,527.033 238.633,530.197 228.683,530.197C218.732,530.197 213.629,527.237 213.629,517.287L213.629,495.344L225.468,495.344L225.468,517.746Z" style="fill:rgb(91,194,231);fill-rule:nonzero;"/>
        <path d="M259.759,504.734L263.739,495.345L275.374,495.345L267.975,511.623L274.915,529.534L262.77,529.534L259.759,520.451L256.646,529.534L244.603,529.534L251.901,513.154L244.603,495.345L256.646,495.345L259.759,504.734Z" style="fill:rgb(91,194,231);fill-rule:nonzero;"/>
        <path d="M299.816,528.87C299.816,528.87 294.407,530.197 288.845,530.197C277.618,530.197 274.251,526.216 274.251,512.337C274.251,498.865 277.516,494.681 289.355,494.681C293.182,494.681 299.816,496.058 299.816,496.058L299.51,505.193C299.51,505.193 295.325,504.682 291.702,504.682C287.161,504.682 286.191,505.601 286.191,512.337C286.191,519.226 287.212,520.195 291.702,520.195C295.325,520.195 299.663,519.889 299.663,519.889L299.816,528.87Z" style="fill:rgb(78,135,160);fill-rule:nonzero;"/>
        <path d="M321.503,512.439C321.503,507.183 321.095,504.274 317.166,504.274C313.389,504.274 312.828,507.183 312.828,512.439C312.828,517.695 313.389,520.604 317.166,520.604C321.044,520.604 321.503,517.644 321.503,512.439M300.887,512.439C300.887,499.988 305.786,494.681 317.166,494.681C328.545,494.681 333.444,499.988 333.444,512.439C333.444,524.89 328.545,530.197 317.166,530.197C305.939,530.197 300.887,524.89 300.887,512.439" style="fill:rgb(78,135,160);fill-rule:nonzero;"/>
        <path d="M335.791,495.344L347.426,495.344L355.284,508.305L355.998,508.305L355.998,495.344L367.837,495.344L367.837,529.533L356.152,529.533L348.395,515.602L347.63,515.602L347.63,529.533L335.791,529.533L335.791,495.344Z" style="fill:rgb(78,135,160);fill-rule:nonzero;"/>
        <path d="M370.898,495.344L395.545,495.344L395.545,504.988L382.737,504.988L382.737,510.5L392.483,510.5L392.483,520.144L382.737,520.144L382.737,529.533L370.898,529.533L370.898,495.344Z" style="fill:rgb(78,135,160);fill-rule:nonzero;"/>
        <path d="M406.873,516.572L411.925,516.572L410.088,504.631L408.812,504.631L406.873,516.572ZM400.443,495.344L418.354,495.344L426.06,529.533L414.119,529.533L413.15,525.604L405.342,525.604L404.526,529.533L392.891,529.533L400.443,495.344Z" style="fill:rgb(91,194,231);fill-rule:nonzero;"/>
        <path d="M438.153,517.746C438.153,519.685 439.021,520.451 441.368,520.451C443.715,520.451 444.532,519.685 444.532,517.746L444.532,495.344L456.37,495.344L456.37,517.083C456.37,527.033 451.318,530.197 441.368,530.197C431.417,530.197 426.314,527.237 426.314,517.287L426.314,495.344L438.153,495.344L438.153,517.746Z" style="fill:rgb(91,194,231);fill-rule:nonzero;"/>
    </g>
</svg>